 {
    "name": "RULE_NAME",
    "rule-disable": "false",
    "match": {
      "source": {
        "zone": {RULE_SRC_ZONE},
        "address": {
          "address-list": ["RULE_SRC_ADDRESS_LIST"],
          "address-group-list": ["RULE_SRC_GROUP_ADDRESS_LIST"]
        },
        "site-name": [],
        "user": {
          "user-type": "any",
          "local-database": {
            "status": "disabled"
          },
          "external-database": {
            "status": "disabled"
          }
        }
      },
      "destination": {
        "zone": {RULE_DST_ZONE},
        "address": {
          "address-list": ["RULE_DST_ADDRESS_LIST"],
          "address-group-list": ["RULE_DST_GROUP_ADDRESS_LIST"]
        },
        "site-name": []
      },
      "services": {
        "predefined-services-list": ["RULE_PREDEFINED_SERVICES"],
        "services-list": ["RULE_CUSTOM_SERVICES"]
      },
      "application": {RULE_APPLICATIONS},
      "url-reputation": {},
      "ttl": {}
    },
    "set": {
      "lef": {
        "event": "never",
        "options": {
          "send-pcap-data": {
            "enable": false
          }
        }
      },
      "action": "RULE_ACTION",
      "tcp-session-keepalive": "disabled"
    }
  }